[
  {
    "id": 1091,
    "propertyTypeId": 224,
    "propertyType": false,
    "name": "Chalet Murasaki",
    "description": "This 8 bedroom chalet (487 sqm) features a large master bedroom (55 sqm) with a hinoki en-suite bathroom and a daybed nook for quiet relaxation.",
    "code": "CM",
    "baseRoom": "",
    "gradeId": 22,
    "gradeSort": 8,
    "locationId": 50,
    "accomTypeId": 2,
    "viewId": 9,
    "kitchenId": 1,
    "liftDistanceId": 179,
    "villageCentreDistanceId": 181,
    "bathrooms": 4,
    "standardPax": 17,
    "maximumPax": 18,
    "soldSeparately": true,
    "upgradedFacilities": false,
    "amenities": {
      "aircon": false,
      "appletv": false,
      "btspeakers": false,
      "cardkey": false,
      "chromecast": false,
      "fireplace": false,
      "hdtv": false,
      "jacuzzi": false,
      "nespresso": false
    },
    "bedConfigurations": [92, 224, 225, 226, 228],
    "status": "healthy",
    "floorArea": 487,
    "online": true,
    "images": []
  },
  {
    "id": 1092,
    "propertyTypeId": 225,
    "propertyType": false,
    "name": "Chalet Murasaki a",
    "description": "This 6 bedroom chalet features a large master bedroom (55 sqm) with a hinoki-lined en suite, large walk-in closet and daybed nook for quiet relaxation.",
    "code": "CMa",
    "baseRoom": "",
    "gradeId": 21,
    "gradeSort": 6,
    "locationId": 50,
    "accomTypeId": 2,
    "viewId": 9,
    "kitchenId": 1,
    "liftDistanceId": 179,
    "villageCentreDistanceId": 181,
    "bathrooms": 3,
    "standardPax": 13,
    "maximumPax": 14,
    "soldSeparately": true,
    "upgradedFacilities": false,
    "amenities": {
      "aircon": false,
      "appletv": false,
      "btspeakers": false,
      "cardkey": false,
      "chromecast": false,
      "fireplace": false,
      "hdtv": false,
      "jacuzzi": false,
      "nespresso": false
    },
    "bedConfigurations": [92, 230, 231],
    "status": "healthy",
    "floorArea": 411,
    "online": true,
    "images": []
  },
  {
    "id": 1093,
    "propertyTypeId": 226,
    "propertyType": false,
    "name": "Chalet Murasaki b",
    "description": "The 2 bedroom Chalet Murasaki Apartment (75.5 sqm) is fully equipped with all amenities, including 2 large flat-screen cable TVs, high-speed WiFi broadband internet, private ski storage, full kitchen and dining facilities, private laundry room and free parking space.",
    "code": "CMb",
    "baseRoom": "",
    "gradeId": 3,
    "gradeSort": 2,
    "locationId": 50,
    "accomTypeId": 2,
    "viewId": 9,
    "kitchenId": 1,
    "liftDistanceId": 179,
    "villageCentreDistanceId": 181,
    "bathrooms": 1,
    "standardPax": 4,
    "maximumPax": 5,
    "soldSeparately": true,
    "upgradedFacilities": false,
    "amenities": {
      "aircon": false,
      "appletv": false,
      "btspeakers": false,
      "cardkey": false,
      "chromecast": false,
      "fireplace": false,
      "hdtv": false,
      "jacuzzi": false,
      "nespresso": false
    },
    "bedConfigurations": [17, 21, 22, 23, 92],
    "status": "healthy",
    "floorArea": 75,
    "online": true,
    "images": []
  },
  {
    "id": 6,
    "propertyTypeId": 231,
    "propertyType": false,
    "name": "Deep Tracks 1",
    "description": "Located just 200 m from the Hirafu Gondola, this 1 bedroom apartment is ideal for those seeking fresh tracks.",
    "code": "DT01",
    "baseRoom": "",
    "gradeId": 2,
    "gradeSort": 1,
    "locationId": 16,
    "accomTypeId": 1,
    "viewId": 11,
    "kitchenId": 1,
    "liftDistanceId": 179,
    "villageCentreDistanceId": 182,
    "bathrooms": 1,
    "standardPax": 2,
    "maximumPax": 3,
    "soldSeparately": true,
    "upgradedFacilities": true,
    "amenities": {
      "aircon": false,
      "appletv": true,
      "btspeakers": true,
      "cardkey": true,
      "chromecast": false,
      "fireplace": false,
      "hdtv": false,
      "jacuzzi": false,
      "nespresso": true
    },
    "bedConfigurations": [8, 9, 92],
    "status": "healthy",
    "floorArea": 44,
    "online": true,
    "images": []
  },
  {
    "id": 7,
    "propertyTypeId": 231,
    "propertyType": false,
    "name": "Deep Tracks 2",
    "description": "Located just 200 m from the Hirafu Gondola, this 1 bedroom apartment is ideal for those seeking fresh tracks.",
    "code": "DT02",
    "baseRoom": "",
    "gradeId": 2,
    "gradeSort": 1,
    "locationId": 16,
    "accomTypeId": 1,
    "viewId": 9,
    "kitchenId": 1,
    "liftDistanceId": 179,
    "villageCentreDistanceId": 182,
    "bathrooms": 1,
    "standardPax": 2,
    "maximumPax": 3,
    "soldSeparately": true,
    "upgradedFacilities": false,
    "amenities": {
      "aircon": false,
      "appletv": false,
      "btspeakers": false,
      "cardkey": true,
      "chromecast": false,
      "fireplace": false,
      "hdtv": false,
      "jacuzzi": false,
      "nespresso": false
    },
    "bedConfigurations": [8, 9, 92],
    "status": "healthy",
    "floorArea": 44,
    "online": true,
    "images": []
  }
]
